%YAML 1.1
%TAG !u! tag:unity3d.com,2011:
--- !u!114 &11400000
MonoBehaviour:
  m_ObjectHideFlags: 0
  m_CorrespondingSourceObject: {fileID: 0}
  m_PrefabInstance: {fileID: 0}
  m_PrefabAsset: {fileID: 0}
  m_GameObject: {fileID: 0}
  m_Enabled: 1
  m_EditorHideFlags: 0
  m_Script: {fileID: 11500000, guid: 5516530f0dcb4084792d4498a63e3d86, type: 3}
  m_Name: Arrow
  m_EditorClassIdentifier: 
  Force: 15
  bulletSprite: {fileID: 21300000, guid: 1bd61c3dd8c883e4c98c3778bf321d5f, type: 3}
