%YAML 1.1
%TAG !u! tag:unity3d.com,2011:
--- !u!114 &11400000
MonoBehaviour:
  m_ObjectHideFlags: 0
  m_CorrespondingSourceObject: {fileID: 0}
  m_PrefabInstance: {fileID: 0}
  m_PrefabAsset: {fileID: 0}
  m_GameObject: {fileID: 0}
  m_Enabled: 1
  m_EditorHideFlags: 0
  m_Script: {fileID: 11500000, guid: 2fdd6c163f2694a43820ebe93d573d15, type: 3}
  m_Name: Big Zombie
  m_EditorClassIdentifier: 
  velocity: 1
  health: 5
  isInvincible: 0
  canAttack: 0
  isHitted: 0
  damage: 2
