%YAML 1.1
%TAG !u! tag:unity3d.com,2011:
--- !u!114 &11400000
MonoBehaviour:
  m_ObjectHideFlags: 0
  m_CorrespondingSourceObject: {fileID: 0}
  m_PrefabInstance: {fileID: 0}
  m_PrefabAsset: {fileID: 0}
  m_GameObject: {fileID: 0}
  m_Enabled: 1
  m_EditorHideFlags: 0
  m_Script: {fileID: 11500000, guid: 09400038db112ff438c2ba99b2c50b07, type: 3}
  m_Name: InputDataPlayer
  m_EditorClassIdentifier: 
  axisInputDirection: {x: 0, y: 0}
  mouseScreenPoint: {x: 0.17647049, y: 5.957984}
  spaceInput: 0
  mouseClickInput: 0
  mouseScrollInput: 0
